<svg width="413" height="338" xmlns="http://www.w3.org/2000/svg">
    <defs>
        <radialGradient cx="50%" cy="31.761%" fx="50%" fy="31.761%" r="98.262%" gradientTransform="scale(-1 -.80671) rotate(-59.413 -.623 .838)" id="a">
            <stop stop-color="#FF8E3C" offset="0%"/>
            <stop stop-color="#E53170" offset="100%"/>
        </radialGradient>
        <filter color-interpolation-filters="auto" id="b">
            <feColorMatrix in="SourceGraphic" values="0 0 0 0 1.000000 0 0 0 0 0.556863 0 0 0 0 0.235294 0 0 0 1.000000 0"/>
        </filter>
    </defs>
    <g fill="none" fill-rule="evenodd">
        <path d="m192.133 55.085 127.906 154.979c8.086 9.797 6.699 24.293-3.098 32.379a23 23 0 0 1-7.04 3.969L96.539 321.11c-11.989 4.198-25.11-2.119-29.308-14.108a23 23 0 0 1 .152-15.62l85.454-229.678c4.43-11.905 17.672-17.965 29.577-13.536a23 23 0 0 1 9.719 6.917Z" fill="#F4EEF5"/>
        <g fill-rule="nonzero">
            <path d="M54.358.192a4 4 0 0 1 2.448 0l51.581 16.578a4 4 0 0 1 2.776 3.808V58.47c0 35.496-22.212 67.198-55.582 79.327C22.212 125.67 0 93.967 0 58.471V20.578a4 4 0 0 1 2.776-3.808Zm2.482 20.826a4 4 0 0 0-2.516 0L21.407 31.926a4 4 0 0 0-2.742 3.797v23.22c0 13.155 3.992 25.804 11.54 36.58 6.496 9.269 15.197 16.54 25.377 21.252 10.18-4.712 18.88-11.983 25.376-21.253 7.55-10.775 11.54-23.424 11.54-36.58v-23.22a4 4 0 0 0-2.741-3.796Z" fill="url(#a)" transform="translate(177.181 118.482)"/>
            <path d="M221.433 198.218a4.002 4.002 0 0 0 3.06 1.42c.99 0 1.95-.366 2.688-1.035l29.056-26.279a4.007 4.007 0 1 0-5.378-5.942l-25.982 23.498-7.416-8.768a4.008 4.008 0 0 0-6.121 5.173l10.093 11.933Z" stroke="#9656A1" stroke-width="2.4" fill="#9656A1"/>
        </g>
        <g filter="url(#b)" transform="translate(151 118.482)">
            <g fill="#E8C499" fill-rule="nonzero">
                <path d="M68 200.518v-27.095a27.543 27.543 0 0 0-5.595-16.643L46.68 136.05c-2.921-3.853-8.43-4.543-12.207-1.528-3.675 2.932-4.328 8.277-1.467 12.013l6.578 8.595-14.77-19.297a11.56 11.56 0 0 1-2.382-7.03v-35.25c0-5.056-4.085-9.154-9.125-9.154-4.706 0-8.64 3.59-9.084 8.29l-4.17 44.105a11.57 11.57 0 0 0 2.283 8.06l33.915 44.3v11.364H68ZM127.75 200.518v-11.365l33.915-44.298a11.571 11.571 0 0 0 2.284-8.06l-4.171-44.107c-.445-4.7-4.378-8.289-9.084-8.289-5.04 0-9.126 4.098-9.126 9.153v35.25c0 2.543-.837 5.015-2.38 7.03l-14.771 19.298 6.579-8.595c2.86-3.736 2.206-9.081-1.468-12.013-3.777-3.015-9.285-2.325-12.208 1.528l-15.726 20.73A27.542 27.542 0 0 0 96 173.423v27.095h31.75Z"/>
            </g>
        </g>
        <path d="M66.75 106.5c-3.937 0-6.75 2.575-6.75 6.962 0 3.138 2.468 6.64 7.269 10.706a1.5 1.5 0 0 0 1.939-2.29c-4.183-3.542-6.208-6.415-6.208-8.416 0-2.668 1.413-3.962 3.75-3.962 1.347 0 2.698.788 4.082 2.505a1.5 1.5 0 1 0 2.335-1.884c-1.909-2.367-4.059-3.621-6.417-3.621Z" fill="#9656A1" fill-rule="nonzero"/>
        <path d="M72.001 108.884c1.751-1.59 3.751-2.384 6-2.384 3.373 0 6 1.875 6 6.372 0 2.998-4 7.874-12 14.628v-18.616ZM393.5 180h3a3 3 0 0 1 3 3v9h-9v-9a3 3 0 0 1 3-3Z" fill="#FF6F61"/>
        <path d="M394.128 168.28a1.5 1.5 0 0 1 1.582-.101l.162.1 10.5 7.5a1.5 1.5 0 0 1 .617 1.041l.011.18.003 11.46c-.008.875-.066 1.299-.282 1.841-.44 1.105-1.416 1.699-2.721 1.699a1.5 1.5 0 0 1-.175-2.99l.15-.008.008-.08c.008-.1.014-.23.017-.397l-.002-10.754-9-6.429-9 6.429.002 10.754c.002.112.005.206.01.286l.014.19.15.01a1.5 1.5 0 0 1 1.316 1.314l.01.175a1.5 1.5 0 0 1-1.5 1.5c-1.305 0-2.282-.594-2.721-1.699-.237-.596-.284-1.05-.283-2.117l.003-.43L383 177c0-.424.18-.825.488-1.107l.14-.114 10.5-7.5ZM90.5 278.5a1.5 1.5 0 0 1 1.49 1.325L92 280v3a1.5 1.5 0 0 1-2.99.175L89 283v-3a1.5 1.5 0 0 1 1.5-1.5Zm21 0a1.5 1.5 0 0 1 1.49 1.325l.01.175v3a1.5 1.5 0 0 1-2.99.175L110 283v-3a1.5 1.5 0 0 1 1.5-1.5Zm1.5-6a1.5 1.5 0 0 1 .175 2.99l-.175.01H89a1.5 1.5 0 0 1-.175-2.99l.175-.01h24Z" fill="#9656A1" fill-rule="nonzero"/>
        <path d="M98 277a3 3 0 0 1-3-3v-7.5a3 3 0 0 1 3-3h6a3 3 0 0 1 3 3v7.5a3 3 0 0 1-3 3h-1.5v3h2.121l1.94 1.94a1.5 1.5 0 0 1-1.98 2.245l-.142-.124-1.061-1.061h-.878a1.5 1.5 0 0 1-2.99.175L99.5 283h-.879l-1.06 1.06a1.5 1.5 0 0 1-1.98.125l-.142-.124a1.5 1.5 0 0 1-.124-1.98l.124-.142L97.38 280H99.5v-3Z" fill="#FF6F61"/>
    </g>
</svg>
